Accessing WoSIS from R – ‘Snapshot’ Version
…
An important attribute at the site level is the sampling depth:

profiles %>% select(profile_id, country_id, longitude, latitude, geom_accuracy, dsds)

## # A tibble: 196,498 x 6
##    profile_id country_id longitude latitude geom_accuracy  dsds
##         <dbl> <chr>          <dbl>    <dbl>         <dbl> <dbl>
##  1      36897 BE              4.67     50.6      0.000001   100
##  2      36898 BE              4.46     50.6      0.000001    97
##  3      36899 BE              4.69     50.6      0.000001   109
##  4      36900 BE              4.68     50.6      0.000001    94
##  5      36901 BE              4.47     50.6      0.000001   100
##  6      36902 BE              4.62     50.6      0.000001   103
##  7      36903 BE              4.77     50.6      0.000001   103
##  8      36904 BE              4.86     50.6      0.000001    94
##  9      36905 BE              4.64     50.5      0.000001   106
## 10      36906 BE              4.61     50.5      0.000001   100
## # … with 196,488 more rows
…
The format for an attribute is {seq:val[,seq:val]} where the seq is an integer on [1...] indicating which measurement number – note that there can be more than one measurement per property, e.g., repeated lab. measurements, and val is the numeric value.

The average of all measurements has its own field, here clay_value_avg, so if we only want the average, it is prepared for us.

With dplyr functions we can easily subset by attribute name. For example to see the hydrometer-based methods of measuring clay:

(clay.values <- physical %>% select(contains("clay")))

## # A tibble: 702,698 x 7
##    clay_value clay_value_avg clay_method               clay_date clay_dataset_id
##    <chr>               <dbl> <chr>                     <chr>     <chr>          
##  1 {1:5.90}              5.9 "{\"1:instrument = pipet… {1:1997-… WD-ISIS        
##  2 {1:10.90}            10.9 "{\"1:instrument = pipet… {1:1997-… WD-ISIS        
##  3 {1:19.00}            19   "{\"1:instrument = pipet… {1:1997-… WD-ISIS        
##  4 {1:30.00}            30   "{\"1:instrument = pipet… {1:1997-… WD-ISIS        
##  5 {1:31.50}            31.5 "{\"1:instrument = pipet… {1:1997-… WD-ISIS        
##  6 {1:10.50}            10.5 "{\"1:instrument = pipet… {1:1997-… WD-ISIS        
##  7 {1:6.90}              6.9 "{\"1:instrument = pipet… {1:1997-… WD-ISIS        
##  8 {1:13.60}            13.6 "{\"1:instrument = pipet… {1:1997-… WD-ISIS        
##  9 {1:32.00}            32   "{\"1:instrument = pipet… {1:1997-… WD-ISIS        
## 10 {1:37.20}            37.2 "{\"1:instrument = pipet… {1:1997-… WD-ISIS        
## # … with 702,688 more rows, and 2 more variables: clay_profile_code <chr>,
## #   clay_licence <chr>
…
## [1] 18

clay.methods[clay.method.hydrometer.ix][1:3]

## [1] "{\"1:dispersion = not specified, treatment = not specified, size = 0 - 0.002 mm, sample pretreatment = sieved over 2 mm sieve, instrument = hydrometer\"}"
## [2] "{\"1:treatment = not specified, dispersion = not specified, size = 0 - 0.002 mm, sample pretreatment = sieved over 2 mm sieve, instrument = hydrometer\"}"
## [3] "{\"1:dispersion = not specified, treatment = not specified, size = 0 - 0.002 mm, instrument = hydrometer, sample pretreatment = sieved over 2 mm sieve\"}"

We see the list of values of individual measurements, the average, the method used, the date of addition to WoSIS, the dataset ID, and the profile. This allows us to select by measurement method and dataset.

If we are satisfied with just the average, we make a table with that value, the profile, and the layer:

(clay.values <- physical %>% select(profile_id:layer_name, clay_value_avg))

## # A tibble: 702,698 x 6
##    profile_id profile_layer_id upper_depth lower_depth layer_name clay_value_avg
##         <int>            <int>       <dbl>       <dbl> <chr>               <dbl>
##  1      47010                1           0          21 Ap                    5.9
##  2      47010                2          21          35 E1                   10.9
##  3      47010                3          35          56 E2                   19  
##  4      47010                4          56          88 EB                   30  
##  5      47010                5          88         120 Bv                   31.5
##  6      47381                6           0           9 <NA>                 10.5
##  7      47381                7           9          20 <NA>                  6.9
##  8      47381                8          20          35 <NA>                 13.6
##  9      47381                9          35          60 <NA>                 32  
## 10      47381               10          60          90 <NA>                 37.2
## # … with 702,688 more rows
…
3.3 Joining profile and attribute information

At the profile (site) level, we can select by location or country or bounding box. But to summarize or display attribute values by these, we need to join the profile and attribute tables.

The primary key in the profiles table is profile_id; the profile_id field in the two attribute tables is the foreign key to link the profiles with their attributes. These along with the profile_layer_id to specify the soil layer result in the full key to the attribute tables.

It’s simplest to select the profiles in the profile table, and then use these profile IDs to select out of the attribute tables.

For example, to analyze the particle-size distribution of Indian soil profiles we first find the profiles from India:

(profiles.india <- dplyr::filter(profiles, country_name=="India") %>%
    select(profile_id, longitude, latitude))

## # A tibble: 199 x 3
##    profile_id longitude latitude
##         <dbl>     <dbl>    <dbl>
##  1      66473      79.5     29.0
##  2      66474      87.3     24.3
##  3      66475      83.3     25.3
##  4      66476      87.3     24.3
##  5      66477      87.2     24.3
##  6      66490      75.8     22.7
##  7      66492      78.4     17.5
##  8      66531      89.2     26.3
##  9      66732      87.2     24.3
## 10      66733      79.5     29.0
## # … with 189 more rows

We then use the left_join function to add the layers to each profile. This will repeat the primary key profile_id for each value of the secondary key profile_layer_id (i.e., the same table structure as the table being joined), with any fields selected from the main (profile) table repeated.

(layers.india <- left_join(profiles.india, physical) %>% 
      select(profile_id, upper_depth:layer_name,sand_value_avg, silt_value_avg, clay_value_avg))

## Joining, by = "profile_id"

## # A tibble: 1,093 x 7
##    profile_id upper_depth lower_depth layer_name sand_value_avg silt_value_avg
##         <dbl>       <dbl>       <dbl> <chr>               <dbl>          <dbl>
##  1      66473           0          20 Ap                     37             45
##  2      66473          20          27 A12                    35             47
##  3      66473          27          43 A3                     36             46
##  4      66473          43          80 B21                    37             44
##  5      66473          80         119 <NA>                   35             47
##  6      66473         119         128 IIC                    57             32
##  7      66474           0          13 Ap                     32             52
##  8      66474          13          24 A3                     28             53
##  9      66474          41          71 B22t                   19             41
## 10      66474          71         101 B23t                   25             44
## # … with 1,083 more rows, and 1 more variable: clay_value_avg <dbl>
…
